<?xml version="1.0" encoding="utf-8"?>
<!-- Generator: Adobe Illustrator 24.3.0, SVG Export Plug-In . SVG Version: 6.00 Build 0)  -->
<svg version="1.1" id="Capa_1" xmlns="http://www.w3.org/2000/svg" xmlns:xlink="http://www.w3.org/1999/xlink" x="0px" y="0px"
	 viewBox="0 0 36 36" style="enable-background:new 0 0 36 36;" xml:space="preserve">
<style type="text/css">
	.st0{fill:#07D2B9;}
</style>
<path class="st0" d="M11.8,17.1c1.5-1.1,13-8.5,13-8.5v5.9c-1.9,1.2-3.5,2.3-4,2.6c-1.5,1.1,0,1.8,0,1.8l4,2.6v6l-13-8.6
	C11.8,18.9,10.4,18.2,11.8,17.1z"/>
</svg>
